FPGA_lab/try0323/simulation/qsim/try0323.msim.vcd
$comment
	File created using the following command:
		vcd file try0323.msim.vcd -direction
$end
$date
	Mon Mar 23 17:16:47 2026
$end
$version
	ModelSim Version 10.5b
$end
$timescale
	1ps
$end

$scope module try0323_vhd_vec_tst $end
$var wire 1 ! A $end
$var wire 1 " B $end
$var wire 1 # C $end
$var wire 1 $ D $end
$var wire 1 % F $end

$scope module i1 $end
$var wire 1 & gnd $end
$var wire 1 ' vcc $end
$var wire 1 ( unknown $end
$var wire 1 ) devoe $end
$var wire 1 * devclrn $end
$var wire 1 + devpor $end
$var wire 1 , ww_devoe $end
$var wire 1 - ww_devclrn $end
$var wire 1 . ww_devpor $end
$var wire 1 / ww_A $end
$var wire 1 0 ww_B $end
$var wire 1 1 ww_C $end
$var wire 1 2 ww_D $end
$var wire 1 3 ww_F $end
$var wire 1 4 \F~output_o\ $end
$var wire 1 5 \D~input_o\ $end
$var wire 1 6 \A~input_o\ $end
$var wire 1 7 \B~input_o\ $end
$var wire 1 8 \C~input_o\ $end
$var wire 1 9 \F~0_combout\ $end
$upscope $end
$upscope $end
$enddefinitions $end
#0
$dumpvars
0!
0"
0#
0$
0%
0&
1'
x(
1)
1*
1+
1,
1-
1.
0/
00
01
02
03
04
05
06
07
08
09
$end
#1000000
1$
12
15
19
14
13
1%
#2000000
0$
1#
02
11
18
05
09
04
03
0%
#3000000
1$
12
15
19
14
13
1%
#4000000
0$
0#
1"
02
01
10
17
08
05
09
04
03
0%
#5000000
1$
12
15
19
14
13
1%
#6000000
0$
1#
02
11
18
05
09
04
03
0%
#7000000
1$
12
15
19
14
13
1%
#8000000
0$
0#
0"
1!
02
01
00
1/
16
07
08
05
09
04
03
0%
#9000000
1$
12
15
19
14
13
1%
#10000000
0$
1#
02
11
18
05
09
04
03
0%
#11000000
1$
12
15
#12000000
0$
0#
1"
02
01
10
17
08
05
#13000000
1$
12
15
#14000000
0$
1#
02
11
18
05
#15000000
1$
12
15
